Account;Description
Springernomics;Springer Business/Economics/Political Science
ELSFinance;Elsevier, Economics & Finance
aomconnect;Academy of Managemnt
EJ_RES;The Economic Journal / Royal Economic Society
WileyEconomics;Wiley
AEAjournals;Journale der American Economic Association 
JIBSupdates;Journal of International Business Studies 
JCRNEWS;Journal of Consumer Research 
JPolEcon;Journal of Political Economy 
INFORMS;largest professional society in the world for professionals in the fields of analytics and OR/MS 
AMA_Marketing;The American Marketing Association 
EconEconomics;The Economist
MISQuarterly;The MIS Quarterly is a peer reviewed scholarly journal published by the Management Information Systems Research Center, University of Minnesota 
RegionalStudies;Regional Studies Association 
AAEA_Economics;Agricultural & Applied Economics Association 
business_econ;National Association for Business Economics
EconJWatch;Scholarly Comments on Academic Economics
EconometricFeed;Feed über veröffentlichte Paper
BrookingsInst;Brookings Institution
econgeography;Economic Geography, Economic Development 
ej_economics  ;Economics - The Open Access, Open-Assessment E-Journal 
econ_hist_SA;Economic History Society of Southern Africa
RealWorldEcon;Real-World Economics Review 
FeministEcon;Feminist Economics, journal of @iaffe, provides an international forum for economic debate, 
NIESRorg;National Institute of Economic and Social Research 
EmeraldAccFin;Emerald Group Publishing -  latest news and research in accounting and finance for academics.
wineecon;American Association of Wine Economists
NewsRSAI;regional impacts of national or global processes of economic and social change. 
jemsjournal;Journal of Economics & Management Strategy (JEMS) 
